module gitlab.com/gitlab-org/gitaly/v15

go 1.17

// It is a temporary solution, please see https://gitlab.com/gitlab-org/gitaly/-/issues/4423 for details.
replace github.com/go-enry/go-license-detector/v4 => github.com/pavelmemory/go-license-detector/v4 v4.3.1-0.20220801101717-a7c9e28533cf

require (
	github.com/ProtonMail/go-crypto v0.0.0-20220810064516-de89276ce0f3
	github.com/beevik/ntp v0.3.0
	github.com/cloudflare/tableflip v1.2.3
	github.com/containerd/cgroups v1.0.4
	github.com/getsentry/sentry-go v0.13.0
	github.com/git-lfs/git-lfs/v3 v3.2.0
	github.com/go-enry/go-enry/v2 v2.8.2
	github.com/go-enry/go-license-detector/v4 v4.3.0
	github.com/golang-jwt/jwt/v4 v4.4.1
	github.com/google/go-cmp v0.5.8
	github.com/google/uuid v1.3.0
	github.com/grpc-ecosystem/go-grpc-middleware v1.3.0
	github.com/grpc-ecosystem/go-grpc-prometheus v1.2.0
	github.com/hashicorp/golang-lru v0.5.4
	github.com/hashicorp/yamux v0.1.1
	github.com/jackc/pgconn v1.13.0
	github.com/jackc/pgtype v1.12.0
	github.com/jackc/pgx/v4 v4.17.0
	github.com/kelseyhightower/envconfig v1.4.0
	github.com/libgit2/git2go/v33 v33.0.9
	github.com/olekukonko/tablewriter v0.0.5
	github.com/opencontainers/runtime-spec v1.0.2
	github.com/opentracing/opentracing-go v1.2.0
	github.com/pelletier/go-toml/v2 v2.0.3
	github.com/prometheus/client_golang v1.12.2
	github.com/prometheus/client_model v0.2.0
	github.com/rubenv/sql-migrate v0.0.0-20191213152630-06338513c237
	github.com/sirupsen/logrus v1.9.0
	github.com/stretchr/testify v1.8.0
	github.com/uber/jaeger-client-go v2.30.0+incompatible
	gitlab.com/gitlab-org/labkit v1.16.0
	go.uber.org/goleak v1.1.12
	gocloud.dev v0.26.0
	golang.org/x/sync v0.0.0-20220601150217-0de741cfad7f
	golang.org/x/sys v0.0.0-20220715151400-c0bba94af5f8
	golang.org/x/time v0.0.0-20220609170525-579cf78fd858
	google.golang.org/grpc v1.48.0
	google.golang.org/protobuf v1.28.1
)

require (
	cloud.google.com/go v0.100.2 // indirect
	cloud.google.com/go/compute v1.5.0 // indirect
	cloud.google.com/go/iam v0.3.0 // indirect
	cloud.google.com/go/monitoring v1.4.0 // indirect
	cloud.google.com/go/profiler v0.1.0 // indirect
	cloud.google.com/go/storage v1.21.0 // indirect
	cloud.google.com/go/trace v1.2.0 // indirect
	contrib.go.opencensus.io/exporter/stackdriver v0.13.10 // indirect
	github.com/Azure/azure-pipeline-go v0.2.3 // indirect
	github.com/Azure/azure-storage-blob-go v0.14.0 // indirect
	github.com/Azure/go-autorest v14.2.0+incompatible // indirect
	github.com/Azure/go-autorest/autorest v0.11.22 // indirect
	github.com/Azure/go-autorest/autorest/adal v0.9.17 // indirect
	github.com/Azure/go-autorest/autorest/date v0.3.0 // indirect
	github.com/Azure/go-autorest/logger v0.2.1 // indirect
	github.com/Azure/go-autorest/tracing v0.6.0 // indirect
	github.com/DataDog/datadog-go v4.4.0+incompatible // indirect
	github.com/DataDog/sketches-go v1.0.0 // indirect
	github.com/Microsoft/go-winio v0.5.0 // indirect
	github.com/StackExchange/wmi v0.0.0-20190523213315-cbe66965904d // indirect
	github.com/alexbrainman/sspi v0.0.0-20210105120005-909beea2cc74 // indirect
	github.com/avast/retry-go v3.0.0+incompatible // indirect
	github.com/aws/aws-sdk-go v1.43.31 // indirect
	github.com/aws/aws-sdk-go-v2 v1.16.2 // indirect
	github.com/aws/aws-sdk-go-v2/aws/protocol/eventstream v1.4.1 // indirect
	github.com/aws/aws-sdk-go-v2/config v1.15.3 // indirect
	github.com/aws/aws-sdk-go-v2/credentials v1.11.2 // indirect
	github.com/aws/aws-sdk-go-v2/feature/ec2/imds v1.12.3 // indirect
	github.com/aws/aws-sdk-go-v2/feature/s3/manager v1.11.3 // indirect
	github.com/aws/aws-sdk-go-v2/internal/configsources v1.1.9 // indirect
	github.com/aws/aws-sdk-go-v2/internal/endpoints/v2 v2.4.3 // indirect
	github.com/aws/aws-sdk-go-v2/internal/ini v1.3.10 // indirect
	github.com/aws/aws-sdk-go-v2/service/internal/accept-encoding v1.9.1 // indirect
	github.com/aws/aws-sdk-go-v2/service/internal/checksum v1.1.3 // indirect
	github.com/aws/aws-sdk-go-v2/service/internal/presigned-url v1.9.3 // indirect
	github.com/aws/aws-sdk-go-v2/service/internal/s3shared v1.13.3 // indirect
	github.com/aws/aws-sdk-go-v2/service/s3 v1.26.3 // indirect
	github.com/aws/aws-sdk-go-v2/service/sso v1.11.3 // indirect
	github.com/aws/aws-sdk-go-v2/service/sts v1.16.3 // indirect
	github.com/aws/smithy-go v1.11.2 // indirect
	github.com/beorn7/perks v1.0.1 // indirect
	github.com/census-instrumentation/opencensus-proto v0.3.0 // indirect
	github.com/cespare/xxhash/v2 v2.1.2 // indirect
	github.com/client9/reopen v1.0.0 // indirect
	github.com/cloudflare/circl v1.1.0 // indirect
	github.com/coreos/go-systemd/v22 v22.3.2 // indirect
	github.com/davecgh/go-spew v1.1.1 // indirect
	github.com/dgryski/go-minhash v0.0.0-20170608043002-7fe510aff544 // indirect
	github.com/docker/go-units v0.4.0 // indirect
	github.com/dpotapov/go-spnego v0.0.0-20220426193508-b7f82e4507db // indirect
	github.com/ekzhu/minhash-lsh v0.0.0-20171225071031-5c06ee8586a1 // indirect
	github.com/emirpasic/gods v1.12.0 // indirect
	github.com/git-lfs/gitobj/v2 v2.1.0 // indirect
	github.com/git-lfs/go-netrc v0.0.0-20210914205454-f0c862dd687a // indirect
	github.com/git-lfs/pktline v0.0.0-20210330133718-06e9096e2825 // indirect
	github.com/git-lfs/wildmatch/v2 v2.0.1 // indirect
	github.com/go-enry/go-oniguruma v1.2.1 // indirect
	github.com/go-git/gcfg v1.5.0 // indirect
	github.com/go-git/go-billy/v5 v5.1.0 // indirect
	github.com/go-git/go-git/v5 v5.3.0 // indirect
	github.com/go-ole/go-ole v1.2.4 // indirect
	github.com/godbus/dbus/v5 v5.0.4 // indirect
	github.com/gogo/protobuf v1.3.2 // indirect
	github.com/golang/groupcache v0.0.0-20210331224755-41bb18bfe9da // indirect
	github.com/golang/protobuf v1.5.2 // indirect
	github.com/google/pprof v0.0.0-20210804190019-f964ff605595 // indirect
	github.com/google/wire v0.5.0 // indirect
	github.com/googleapis/gax-go/v2 v2.2.0 // indirect
	github.com/hashicorp/go-uuid v1.0.3 // indirect
	github.com/hhatto/gorst v0.0.0-20181029133204-ca9f730cac5b // indirect
	github.com/imdario/mergo v0.3.12 // indirect
	github.com/jackc/chunkreader/v2 v2.0.1 // indirect
	github.com/jackc/pgio v1.0.0 // indirect
	github.com/jackc/pgpassfile v1.0.0 // indirect
	github.com/jackc/pgproto3/v2 v2.3.1 // indirect
	github.com/jackc/pgservicefile v0.0.0-20200714003250-2b9c44734f2b // indirect
	github.com/jbenet/go-context v0.0.0-20150711004518-d14ea06fba99 // indirect
	github.com/jcmturner/aescts/v2 v2.0.0 // indirect
	github.com/jcmturner/dnsutils/v2 v2.0.0 // indirect
	github.com/jcmturner/gofork v1.0.0 // indirect
	github.com/jcmturner/goidentity/v6 v6.0.1 // indirect
	github.com/jcmturner/gokrb5/v8 v8.4.2 // indirect
	github.com/jcmturner/rpc/v2 v2.0.3 // indirect
	github.com/jdkato/prose v1.1.0 // indirect
	github.com/jmespath/go-jmespath v0.4.0 // indirect
	github.com/kevinburke/ssh_config v0.0.0-20201106050909-4977a11b4351 // indirect
	github.com/leonelquinteros/gotext v1.5.0 // indirect
	github.com/lightstep/lightstep-tracer-common/golang/gogo v0.0.0-20210210170715-a8dfcb80d3a7 // indirect
	github.com/lightstep/lightstep-tracer-go v0.25.0 // indirect
	github.com/mattn/go-ieproxy v0.0.3 // indirect
	github.com/mattn/go-isatty v0.0.14 // indirect
	github.com/mattn/go-runewidth v0.0.9 // indirect
	github.com/matttproud/golang_protobuf_extensions v1.0.1 // indirect
	github.com/mitchellh/go-homedir v1.1.0 // indirect
	github.com/montanaflynn/stats v0.0.0-20151014174947-eeaced052adb // indirect
	github.com/oklog/ulid/v2 v2.0.2 // indirect
	github.com/olekukonko/ts v0.0.0-20171002115256-78ecb04241c0 // indirect
	github.com/philhofer/fwd v1.1.1 // indirect
	github.com/pkg/errors v0.9.1 // indirect
	github.com/pmezard/go-difflib v1.0.0 // indirect
	github.com/prometheus/common v0.32.1 // indirect
	github.com/prometheus/procfs v0.7.3 // indirect
	github.com/rubyist/tracerx v0.0.0-20170927163412-787959303086 // indirect
	github.com/russross/blackfriday/v2 v2.0.1 // indirect
	github.com/sebest/xff v0.0.0-20210106013422-671bd2870b3a // indirect
	github.com/sergi/go-diff v1.1.0 // indirect
	github.com/shirou/gopsutil/v3 v3.21.2 // indirect
	github.com/shogo82148/go-shuffle v0.0.0-20170808115208-59829097ff3b // indirect
	github.com/shurcooL/sanitized_anchor_name v1.0.0 // indirect
	github.com/ssgelm/cookiejarparser v1.0.1 // indirect
	github.com/tinylib/msgp v1.1.2 // indirect
	github.com/tklauser/go-sysconf v0.3.4 // indirect
	github.com/tklauser/numcpus v0.2.1 // indirect
	github.com/uber/jaeger-lib v2.4.1+incompatible // indirect
	github.com/xanzy/ssh-agent v0.3.0 // indirect
	go.opencensus.io v0.23.0 // indirect
	go.uber.org/atomic v1.9.0 // indirect
	golang.org/x/crypto v0.0.0-20220722155217-630584e8d5aa // indirect
	golang.org/x/exp v0.0.0-20200331195152-e8c3332aa8e5 // indirect
	golang.org/x/net v0.0.0-20220531201128-c960675eff93 // indirect
	golang.org/x/oauth2 v0.0.0-20220309155454-6242fa91716a // indirect
	golang.org/x/text v0.3.7 // indirect
	golang.org/x/xerrors v0.0.0-20200804184101-5ec99f83aff1 // indirect
	gonum.org/v1/gonum v0.8.2 // indirect
	google.golang.org/api v0.74.0 // indirect
	google.golang.org/appengine v1.6.7 // indirect
	google.golang.org/genproto v0.0.0-20220401170504-314d38edb7de // indirect
	gopkg.in/DataDog/dd-trace-go.v1 v1.32.0 // indirect
	gopkg.in/gorp.v1 v1.7.2 // indirect
	gopkg.in/neurosnap/sentences.v1 v1.0.6 // indirect
	gopkg.in/warnings.v0 v0.1.2 // indirect
	gopkg.in/yaml.v3 v3.0.1 // indirect
)

exclude (
	// CVE-2020-28483
	github.com/gin-gonic/gin v1.4.0
	github.com/gin-gonic/gin v1.6.3
)
